{
  "results" : [
	{
	  "genre_ids" : [
		53,
		28,
		878
	  ],
	  "adult" : false,
	  "backdrop_path" : "\/lOSdUkGQmbAl5JQ3QoHqBZUbZhC.jpg",
	  "id" : 775996,
	  "original_title" : "Outside the Wire",
	  "vote_average" : 6.5,
	  "popularity" : 3674.779,
	  "poster_path" : "\/e6SK2CAbO3ENy52UTzP3lv32peC.jpg",
	  "overview" : "In the near future, a drone pilot is sent into a deadly militarized zone and must work with an android officer to locate a doomsday device.",
	  "title" : "Outside the Wire",
	  "original_language" : "en",
	  "vote_count" : 504,
	  "release_date" : "2021-01-15",
	  "video" : false
	},
	{
	  "genre_ids" : [
		14,
		28,
		12
	  ],
	  "adult" : false,
	  "backdrop_path" : "\/srYya1ZlI97Au4jUYAktDe3avyA.jpg",
	  "id" : 464052,
	  "original_title" : "Wonder Woman 1984",
	  "vote_average" : 7.0999999999999996,
	  "popularity" : 2958.7220000000002,
	  "poster_path" : "\/8UlWHLMpgZm9bx6QYh0NFoq67TZ.jpg",
	  "overview" : "Wonder Woman comes into conflict with the Soviet Union during the Cold War in the 1980s and finds a formidable foe by the name of the Cheetah.",
	  "title" : "Wonder Woman 1984",
	  "original_language" : "en",
	  "vote_count" : 3171,
	  "release_date" : "2020-12-16",
	  "video" : false
	},
	{
	  "genre_ids" : [
		878,
		28
	  ],
	  "adult" : false,
	  "backdrop_path" : "\/nz8xWrTKZzA5A7FgxaM4kfAoO1W.jpg",
	  "id" : 651571,
	  "original_title" : "Breach",
	  "vote_average" : 5,
	  "popularity" : 2173.2539999999999,
	  "poster_path" : "\/13B6onhL6FzSN2KaNeQeMML05pS.jpg",
	  "overview" : "A hardened mechanic must stay awake and maintain an interstellar ark fleeing the dying planet Earth with a few thousand lucky souls on board... the last of humanity. Unfortunately, humans are not the only passengers. A shapeshifting alien creature has taken residence, its only goal is to kill as many people as possible. The crew must think quickly to stop this menace before it destroys mankind.",
	  "title" : "Breach",
	  "original_language" : "en",
	  "vote_count" : 144,
	  "release_date" : "2021-01-01",
	  "video" : false
	},
	{
	  "genre_ids" : [
		10751,
		16,
		35,
		18,
		10402,
		14
	  ],
	  "adult" : false,
	  "backdrop_path" : "\/kf456ZqeC45XTvo6W9pW5clYKfQ.jpg",
	  "id" : 508442,
	  "original_title" : "Soul",
	  "vote_average" : 8.3000000000000007,
	  "popularity" : 2056.5309999999999,
	  "poster_path" : "\/hm58Jw4Lw8OIeECIq5qyPYhAeRJ.jpg",
	  "overview" : "Joe Gardner is a middle school teacher with a love for jazz music. After a successful gig at the Half Note Club, he suddenly gets into an accident that separates his soul from his body and is transported to the You Seminar, a center in which souls develop and gain passions before being transported to a newborn child. Joe must enlist help from the other souls-in-training, like 22, a soul who has spent eons in the You Seminar, in order to get back to Earth.",
	  "title" : "Soul",
	  "original_language" : "en",
	  "vote_count" : 4319,
	  "release_date" : "2020-12-25",
	  "video" : false
	},
	{
	  "genre_ids" : [
		878,
		28
	  ],
	  "adult" : false,
	  "backdrop_path" : "\/3ombg55JQiIpoPnXYb2oYdr6DtP.jpg",
	  "id" : 560144,
	  "original_title" : "Skylines",
	  "vote_average" : 6,
	  "popularity" : 1744.79,
	  "poster_path" : "\/2W4ZvACURDyhiNnSIaFPHfNbny3.jpg",
	  "overview" : "When a virus threatens to turn the now earth-dwelling friendly alien hybrids against humans, Captain Rose Corley must lead a team of elite mercenaries on a mission to the alien world in order to save what's left of humanity.",
	  "title" : "Skylines",
	  "original_language" : "en",
	  "vote_count" : 131,
	  "release_date" : "2020-10-25",
	  "video" : false
	},
	{
	  "genre_ids" : [
		878,
		28
	  ],
	  "adult" : false,
	  "backdrop_path" : "\/jb6Ju38HmKX0bYHCmAxs8HyNeJ2.jpg",
	  "id" : 373571,
	  "original_title" : "Godzilla: King of the Monsters",
	  "vote_average" : 6.5999999999999996,
	  "popularity" : 1649.529,
	  "poster_path" : "\/mzOHg7Q5q9yUmY0b9Esu8Qe6Nnm.jpg",
	  "overview" : "Follows the heroic efforts of the crypto-zoological agency Monarch as its members face off against a battery of god-sized monsters, including the mighty Godzilla, who collides with Mothra, Rodan, and his ultimate nemesis, the three-headed King Ghidorah. When these ancient super-species, thought to be mere myths, rise again, they all vie for supremacy, leaving humanity's very existence hanging in the balance.",
	  "title" : "Godzilla: King of the Monsters",
	  "original_language" : "en",
	  "vote_count" : 3417,
	  "release_date" : "2019-05-29",
	  "video" : false
	},
	{
	  "genre_ids" : [
		28,
		878
	  ],
	  "adult" : false,
	  "backdrop_path" : "\/mGJuQwMq1bEboaVTqQAK4p4zQvC.jpg",
	  "id" : 399566,
	  "original_title" : "Godzilla vs. Kong",
	  "vote_average" : 0,
	  "popularity" : 1737.3610000000001,
	  "poster_path" : "\/aU3csT4w0QEdpi4pnh7IunsaMw0.jpg",
	  "overview" : "In a time when monsters walk the Earth, humanity’s fight for its future sets Godzilla and Kong on a collision course that will see the two most powerful forces of nature on the planet collide in a spectacular battle for the ages.",
	  "title" : "Godzilla vs. Kong",
	  "original_language" : "en",
	  "vote_count" : 0,
	  "release_date" : "2021-03-25",
	  "video" : false
	},
	{
	  "genre_ids" : [
		28,
		80,
		18,
		53
	  ],
	  "adult" : false,
	  "backdrop_path" : "\/54yOImQgj8i85u9hxxnaIQBRUuo.jpg",
	  "id" : 539885,
	  "original_title" : "Ava",
	  "vote_average" : 5.5999999999999996,
	  "popularity" : 1307.1400000000001,
	  "poster_path" : "\/qzA87Wf4jo1h8JMk9GilyIYvwsA.jpg",
	  "overview" : "A black ops assassin is forced to fight for her own survival after a job goes dangerously wrong.",
	  "title" : "Ava",
	  "original_language" : "en",
	  "vote_count" : 1160,
	  "release_date" : "2020-07-02",
	  "video" : false
	},
	{
	  "genre_ids" : [
		53,
		28,
		80,
		18
	  ],
	  "adult" : false,
	  "backdrop_path" : "\/2M2JxEv3HSpjnZWjY9NOdGgfUd.jpg",
	  "id" : 553604,
	  "original_title" : "Honest Thief",
	  "vote_average" : 6.5999999999999996,
	  "popularity" : 1188.7750000000001,
	  "poster_path" : "\/zeD4PabP6099gpE0STWJrJrCBCs.jpg",
	  "overview" : "A bank robber tries to turn himself in because he's falling in love and wants to live an honest life...but when he realizes the Feds are more corrupt than him, he must fight back to clear his name.",
	  "title" : "Honest Thief",
	  "original_language" : "en",
	  "vote_count" : 525,
	  "release_date" : "2020-09-03",
	  "video" : false
	},
	{
	  "genre_ids" : [
		28,
		12,
		80
	  ],
	  "adult" : false,
	  "backdrop_path" : "\/fX8e94MEWSuTJExndVYxKsmA4Hw.jpg",
	  "id" : 604822,
	  "original_title" : "急先锋",
	  "vote_average" : 6.7999999999999998,
	  "popularity" : 1252.4100000000001,
	  "poster_path" : "\/vYvppZMvXYheYTWVd8Rnn9nsmNp.jpg",
	  "overview" : "Covert security company Vanguard is the last hope of survival for an accountant after he is targeted by the world's deadliest mercenary organization.",
	  "title" : "Vanguard",
	  "original_language" : "zh",
	  "vote_count" : 162,
	  "release_date" : "2020-09-30",
	  "video" : false
	},
	{
	  "genre_ids" : [
		28,
		12,
		53
	  ],
	  "adult" : false,
	  "backdrop_path" : "\/h9DIlghaiTxbQbt1FIwKNbQvEL.jpg",
	  "id" : 581387,
	  "original_title" : "백두산",
	  "vote_average" : 6.7999999999999998,
	  "popularity" : 1265.8889999999999,
	  "poster_path" : "\/zoeKREZ2IdAUnXISYCS0E6H5BVh.jpg",
	  "overview" : "Stagnant since 1903, at an elevation of 9000', a volcano erupts on the mythical and majestic Baekdu Mountain.",
	  "title" : "Ashfall",
	  "original_language" : "ko",
	  "vote_count" : 164,
	  "release_date" : "2019-12-19",
	  "video" : false
	},
	{
	  "genre_ids" : [
		28,
		80
	  ],
	  "adult" : false,
	  "backdrop_path" : "\/9xNOiv6DZZjH7ABoUUDP0ZynouU.jpg",
	  "id" : 495764,
	  "original_title" : "Birds of Prey (and the Fantabulous Emancipation of One Harley Quinn)",
	  "vote_average" : 7.0999999999999996,
	  "popularity" : 1113.5050000000001,
	  "poster_path" : "\/h4VB6m0RwcicVEZvzftYZyKXs6K.jpg",
	  "overview" : "Harley Quinn joins forces with a singer, an assassin and a police detective to help a young girl who had a hit placed on her after she stole a rare diamond from a crime lord.",
	  "title" : "Birds of Prey (and the Fantabulous Emancipation of One Harley Quinn)",
	  "original_language" : "en",
	  "vote_count" : 6773,
	  "release_date" : "2020-02-05",
	  "video" : false
	},
	{
	  "genre_ids" : [
		28,
		53
	  ],
	  "adult" : false,
	  "backdrop_path" : "\/9pHxv7TX0jOKNgnGMDP6RJ2m1GL.jpg",
	  "id" : 737568,
	  "original_title" : "The Doorman",
	  "vote_average" : 6,
	  "popularity" : 1093.9649999999999,
	  "poster_path" : "\/pklyUbh4k1DbHdnsOMASyw7C6NH.jpg",
	  "overview" : "A former Marine turned doorman at a luxury New York City high-rise must outsmart and battle a group of art thieves and their ruthless leader — while struggling to protect her sister's family. As the thieves become increasingly desperate and violent, the doorman calls upon her deadly fighting skills to end the showdown.",
	  "title" : "The Doorman",
	  "original_language" : "en",
	  "vote_count" : 139,
	  "release_date" : "2020-10-01",
	  "video" : false
	},
	{
	  "genre_ids" : [
		28,
		53,
		878
	  ],
	  "adult" : false,
	  "backdrop_path" : "\/wzJRB4MKi3yK138bJyuL9nx47y6.jpg",
	  "id" : 577922,
	  "original_title" : "Tenet",
	  "vote_average" : 7.2999999999999998,
	  "popularity" : 1117.5329999999999,
	  "poster_path" : "\/k68nPLbIST6NP96JmTxmZijEvCA.jpg",
	  "overview" : "Armed with only one word - Tenet - and fighting for the survival of the entire world, the Protagonist journeys through a twilight world of international espionage on a mission that will unfold in something beyond real time.",
	  "title" : "Tenet",
	  "original_language" : "en",
	  "vote_count" : 4180,
	  "release_date" : "2020-08-22",
	  "video" : false
	},
	{
	  "genre_ids" : [
		28,
		80,
		18
	  ],
	  "adult" : false,
	  "backdrop_path" : "\/zogWnCSztU8xvabaepQnAwsOtOt.jpg",
	  "id" : 531499,
	  "original_title" : "The Tax Collector",
	  "vote_average" : 5.7999999999999998,
	  "popularity" : 1053.3040000000001,
	  "poster_path" : "\/3eg0kGC2Xh0vhydJHO37Sp4cmMt.jpg",
	  "overview" : "David Cuevas is a family man who works as a gangland tax collector for high ranking Los Angeles gang members. He makes collections across the city with his partner Creeper making sure people pay up or will see retaliation. An old threat returns to Los Angeles that puts everything David loves in harm’s way.",
	  "title" : "The Tax Collector",
	  "original_language" : "en",
	  "vote_count" : 234,
	  "release_date" : "2020-08-07",
	  "video" : false
	},
	{
	  "genre_ids" : [
		16,
		10751
	  ],
	  "adult" : false,
	  "backdrop_path" : "\/yR27bZPIkNhpGEIP3jKV2EifTgo.jpg",
	  "id" : 755812,
	  "original_title" : "Miraculous World: New York, United HeroeZ",
	  "vote_average" : 8.5,
	  "popularity" : 1012.246,
	  "poster_path" : "\/kIHgjAkuzvKBnmdstpBOo4AfZah.jpg",
	  "overview" : "During a school field trip, Ladybug and Cat Noir meet the American superheroes, whom they have to save from an akumatised super-villain. They discover that Miraculous exist in the United States too.",
	  "title" : "Miraculous World: New York, United HeroeZ",
	  "original_language" : "fr",
	  "vote_count" : 334,
	  "release_date" : "2020-09-26",
	  "video" : false
	},
	{
	  "genre_ids" : [
		14,
		28,
		12,
		16
	  ],
	  "adult" : false,
	  "backdrop_path" : "\/9xeEGUZjgiKlI69jwIOi0hjKUIk.jpg",
	  "id" : 664767,
	  "original_title" : "Mortal Kombat Legends: Scorpion's Revenge",
	  "vote_average" : 8.4000000000000004,
	  "popularity" : 885.68299999999999,
	  "poster_path" : "\/4VlXER3FImHeFuUjBShFamhIp9M.jpg",
	  "overview" : "After the vicious slaughter of his family by stone-cold mercenary Sub-Zero, Hanzo Hasashi is exiled to the torturous Netherrealm. There, in exchange for his servitude to the sinister Quan Chi, he’s given a chance to avenge his family – and is resurrected as Scorpion, a lost soul bent on revenge. Back on Earthrealm, Lord Raiden gathers a team of elite warriors – Shaolin monk Liu Kang, Special Forces officer Sonya Blade and action star Johnny Cage – an unlikely band of heroes with one chance to save humanity. To do this, they must defeat Shang Tsung’s horde of Outworld gladiators and reign over the Mortal Kombat tournament.",
	  "title" : "Mortal Kombat Legends: Scorpion's Revenge",
	  "original_language" : "en",
	  "vote_count" : 729,
	  "release_date" : "2020-04-12",
	  "video" : false
	},
	{
	  "genre_ids" : [
		10751,
		12,
		14,
		16
	  ],
	  "adult" : false,
	  "backdrop_path" : "\/cjaOSjsjV6cl3uXdJqimktT880L.jpg",
	  "id" : 529203,
	  "original_title" : "The Croods: A New Age",
	  "vote_average" : 7.7000000000000002,
	  "popularity" : 932.73000000000002,
	  "poster_path" : "\/tK1zy5BsCt1J4OzoDicXmr0UTFH.jpg",
	  "overview" : "Searching for a safer habitat, the prehistoric Crood family discovers an idyllic, walled-in paradise that meets all of its needs. Unfortunately, they must also learn to live with the Bettermans -- a family that's a couple of steps above the Croods on the evolutionary ladder. As tensions between the new neighbors start to rise, a new threat soon propels both clans on an epic adventure that forces them to embrace their differences, draw strength from one another, and survive together.",
	  "title" : "The Croods: A New Age",
	  "original_language" : "en",
	  "vote_count" : 1325,
	  "release_date" : "2020-11-25",
	  "video" : false
	},
	{
	  "genre_ids" : [
		18,
		28,
		53
	  ],
	  "adult" : false,
	  "backdrop_path" : "\/1R6cvRtZgsYCkh8UFuWFN33xBP4.jpg",
	  "id" : 545609,
	  "original_title" : "Extraction",
	  "vote_average" : 7.4000000000000004,
	  "popularity" : 770.51700000000005,
	  "poster_path" : "\/wlfDxbGEsW58vGhFljKkcR5IxDj.jpg",
	  "overview" : "Tyler Rake, a fearless mercenary who offers his services on the black market, embarks on a dangerous mission when he is hired to rescue the kidnapped son of a Mumbai crime lord.",
	  "title" : "Extraction",
	  "original_language" : "en",
	  "vote_count" : 3488,
	  "release_date" : "2020-04-24",
	  "video" : false
	},
	{
	  "genre_ids" : [
		53,
		28,
		80
	  ],
	  "adult" : false,
	  "backdrop_path" : "\/upUy2QhMZEmtypPW3PdieKLAHxh.jpg",
	  "id" : 38700,
	  "original_title" : "Bad Boys for Life",
	  "vote_average" : 7.2000000000000002,
	  "popularity" : 708.46100000000001,
	  "poster_path" : "\/y95lQLnuNKdPAzw9F9Ab8kJ80c3.jpg",
	  "overview" : "Marcus and Mike are forced to confront new threats, career changes, and midlife crises as they join the newly created elite team AMMO of the Miami police department to take down the ruthless Armando Armas, the vicious leader of a Miami drug cartel.",
	  "title" : "Bad Boys for Life",
	  "original_language" : "en",
	  "vote_count" : 5872,
	  "release_date" : "2020-01-15",
	  "video" : false
	}
  ],
  "total_pages" : 500,
  "total_results" : 10000,
  "page" : 1
}
