{
  "results" : [
    {
      "genre_ids" : [
        16,
        28,
        12,
        80,
        14
      ],
      "adult" : false,
      "backdrop_path" : "\/jvRewPpawHAfBW38EzHoFdTVEez.jpg",
      "id" : 732450,
      "original_title" : "Batman: Soul of the Dragon",
      "vote_average" : 7.2000000000000002,
      "popularity" : 707.07799999999997,
      "poster_path" : "\/uDhnTtSxU5a8DtZdbbin3aZmkmU.jpg",
      "overview" : "Bruce Wayne faces a deadly menace from his past, with the help of three former classmates: world-renowned martial artists Richard Dragon, Ben Turner and Lady Shiva.",
      "title" : "Batman: Soul of the Dragon",
      "original_language" : "en",
      "vote_count" : 62,
      "release_date" : "2021-01-12",
      "video" : false
    },
    {
      "genre_ids" : [
        10751,
        16,
        14
      ],
      "adult" : false,
      "backdrop_path" : "\/7TxeZVg2evMG42p0uSbMJpWNQ8A.jpg",
      "id" : 520946,
      "original_title" : "100% Wolf",
      "vote_average" : 6.7999999999999998,
      "popularity" : 913.06500000000005,
      "poster_path" : "\/2VrvxK4yxNCU6KVgo5TADJeBEQu.jpg",
      "overview" : "Freddy Lupin, heir to a proud family line of werewolves, is in for a shock when on his 14th birthday his first 'warfing' goes awry, turning him into a ferocious poodle. The pack elders give Freddy until the next moonrise to prove he has the heart of a wolf, or risk being cast out forever. With the help of an unlikely ally in a streetwise stray named Batty, Freddy must prove he's 100% Wolf.",
      "title" : "100% Wolf",
      "original_language" : "en",
      "vote_count" : 45,
      "release_date" : "2020-06-26",
      "video" : false
    },
    {
      "genre_ids" : [
        28,
        878
      ],
      "adult" : false,
      "backdrop_path" : "\/lP5eKh8WOcPysfELrUpGhHJGZEH.jpg",
      "id" : 338762,
      "original_title" : "Bloodshot",
      "vote_average" : 6.9000000000000004,
      "popularity" : 689.34299999999996,
      "poster_path" : "\/8WUVHemHFH2ZIP6NWkwlHWsyrEL.jpg",
      "overview" : "After he and his wife are murdered, marine Ray Garrison is resurrected by a team of scientists. Enhanced with nanotechnology, he becomes a superhuman, biotech killing machine—'Bloodshot'. As Ray first trains with fellow super-soldiers, he cannot recall anything from his former life. But when his memories flood back and he remembers the man that killed both him and his wife, he breaks out of the facility to get revenge, only to discover that there's more to the conspiracy than he thought.",
      "title" : "Bloodshot",
      "original_language" : "en",
      "vote_count" : 3532,
      "release_date" : "2020-03-05",
      "video" : false
    },
    {
      "genre_ids" : [
        28,
        18,
        878
      ],
      "adult" : false,
      "backdrop_path" : "\/zCjZfevPFBbOh2SAx2syIBHSqEI.jpg",
      "id" : 124905,
      "original_title" : "Godzilla",
      "vote_average" : 6.2000000000000002,
      "popularity" : 756.84299999999996,
      "poster_path" : "\/iBZhbCVhLpyxAfW1B8ePUxjScrx.jpg",
      "overview" : "Ford Brody, a Navy bomb expert, has just reunited with his family in San Francisco when he is forced to go to Japan to help his estranged father, Joe. Soon, both men are swept up in an escalating crisis when an ancient alpha predator arises from the sea to combat malevolent adversaries that threaten the survival of humanity. The creatures leave colossal destruction in their wake, as they make their way toward their final battleground: San Francisco.",
      "title" : "Godzilla",
      "original_language" : "en",
      "vote_count" : 6477,
      "release_date" : "2014-05-14",
      "video" : false
    },
    {
      "genre_ids" : [
        28,
        14,
        10751,
        18,
        35
      ],
      "adult" : false,
      "backdrop_path" : "\/UgNke0mMQhQdnX2hEu4cN83M0a.jpg",
      "id" : 615677,
      "original_title" : "We Can Be Heroes",
      "vote_average" : 6.2000000000000002,
      "popularity" : 629.12800000000004,
      "poster_path" : "\/1S21HpcKY6uQ9UAw68aICmrJaq6.jpg",
      "overview" : "When alien invaders capture Earth's superheroes, their kids must learn to work together to save their parents - and the planet.",
      "title" : "We Can Be Heroes",
      "original_language" : "en",
      "vote_count" : 311,
      "release_date" : "2020-12-25",
      "video" : false
    },
    {
      "genre_ids" : [
        12,
        35,
        14
      ],
      "adult" : false,
      "backdrop_path" : "\/zTxHf9iIOCqRbxvl8W5QYKrsMLq.jpg",
      "id" : 512200,
      "original_title" : "Jumanji: The Next Level",
      "vote_average" : 7,
      "popularity" : 619.50199999999995,
      "poster_path" : "\/jyw8VKYEiM1UDzPB7NsisUgBeJ8.jpg",
      "overview" : "As the gang return to Jumanji to rescue one of their own, they discover that nothing is as they expect. The players will have to brave parts unknown and unexplored in order to escape the world’s most dangerous game.",
      "title" : "Jumanji: The Next Level",
      "original_language" : "en",
      "vote_count" : 5382,
      "release_date" : "2019-12-04",
      "video" : false
    },
    {
      "genre_ids" : [
        10751,
        16,
        35,
        12
      ],
      "adult" : false,
      "backdrop_path" : "\/lWf1aiqDZqUbhrw8DnsfV8Ql7CP.jpg",
      "id" : 777350,
      "original_title" : "Dory's Reef Cam",
      "vote_average" : 5.7999999999999998,
      "popularity" : 534.79200000000003,
      "poster_path" : "\/mMWLGu9pFymqipN8yvISHsAaj72.jpg",
      "overview" : "Dive into the waters below and watch the aquatic wildlife from the world of Nemo and Dory.",
      "title" : "Dory's Reef Cam",
      "original_language" : "en",
      "vote_count" : 53,
      "release_date" : "2020-12-18",
      "video" : false
    },
    {
      "genre_ids" : [
        14,
        28,
        12
      ],
      "adult" : false,
      "backdrop_path" : "\/6mKAKhj8POVGqV1GsroS5mGIUe9.jpg",
      "id" : 666750,
      "original_title" : "Dragonheart: Vengeance",
      "vote_average" : 6.7999999999999998,
      "popularity" : 611.85500000000002,
      "poster_path" : "\/qs6gz6atyQcAvqC6qZaslOjliUG.jpg",
      "overview" : "Lukas, a young farmer whose family is killed by savage raiders in the countryside, sets out on an epic quest for revenge, forming an unlikely trio with a majestic dragon and a swashbuckling, sword-fighting mercenary, Darius.",
      "title" : "Dragonheart: Vengeance",
      "original_language" : "en",
      "vote_count" : 191,
      "release_date" : "2020-02-04",
      "video" : false
    },
    {
      "genre_ids" : [
        80,
        53,
        18
      ],
      "adult" : false,
      "backdrop_path" : "\/n6bUvigpRFqSwmPp1m2YADdbRBc.jpg",
      "id" : 475557,
      "original_title" : "Joker",
      "vote_average" : 8.1999999999999993,
      "popularity" : 572.93899999999996,
      "poster_path" : "\/udDclJoHjfjb8Ekgsd4FDteOkCU.jpg",
      "overview" : "During the 1980s, a failed stand-up comedian is driven insane and turns to a life of crime and chaos in Gotham City while becoming an infamous psychopathic crime figure.",
      "title" : "Joker",
      "original_language" : "en",
      "vote_count" : 16526,
      "release_date" : "2019-10-02",
      "video" : false
    },
    {
      "genre_ids" : [
        28,
        53
      ],
      "adult" : false,
      "backdrop_path" : "\/2Fk3AB8E9dYIBc2ywJkxk8BTyhc.jpg",
      "id" : 524047,
      "original_title" : "Greenland",
      "vote_average" : 7.0999999999999996,
      "popularity" : 588.69600000000003,
      "poster_path" : "\/bNo2mcvSwIvnx8K6y1euAc1TLVq.jpg",
      "overview" : "John Garrity, his estranged wife and their young son embark on a perilous journey to find sanctuary as a planet-killing comet hurtles toward Earth. Amid terrifying accounts of cities getting levelled, the Garrity's experience the best and worst in humanity. As the countdown to the global apocalypse approaches zero, their incredible trek culminates in a desperate and last-minute flight to a possible safe haven.",
      "title" : "Greenland",
      "original_language" : "en",
      "vote_count" : 1586,
      "release_date" : "2020-07-29",
      "video" : false
    },
    {
      "genre_ids" : [
        9648,
        878,
        18,
        53
      ],
      "adult" : false,
      "backdrop_path" : "\/lVSMgZUBE4XTVaPBEBAczre4f1W.jpg",
      "id" : 565743,
      "original_title" : "The Vast of Night",
      "vote_average" : 6.4000000000000004,
      "popularity" : 596.298,
      "poster_path" : "\/suORidtGKPO6tWwNqiwGvNo85z3.jpg",
      "overview" : "At the dawn of the space-race, two radio-obsessed teens discover a strange frequency over the airwaves in what becomes the most important night of their lives and in the history of their small town.",
      "title" : "The Vast of Night",
      "original_language" : "en",
      "vote_count" : 450,
      "release_date" : "2020-05-15",
      "video" : false
    },
    {
      "genre_ids" : [
        28,
        12,
        14
      ],
      "adult" : false,
      "backdrop_path" : "\/x0RApsCncKWEMZgkqV6l8ZpCJ80.jpg",
      "id" : 293167,
      "original_title" : "Kong: Skull Island",
      "vote_average" : 6.4000000000000004,
      "popularity" : 553.07299999999998,
      "poster_path" : "\/r2517Vz9EhDhj88qwbDVj8DCRZN.jpg",
      "overview" : "Explore the mysterious and dangerous home of the king of the apes as a team of explorers ventures deep inside the treacherous, primordial island.",
      "title" : "Kong: Skull Island",
      "original_language" : "en",
      "vote_count" : 7751,
      "release_date" : "2017-03-08",
      "video" : false
    },
    {
      "genre_ids" : [
        28,
        12,
        878
      ],
      "adult" : false,
      "backdrop_path" : "\/a6cDxdwaQIFjSkXf7uskg78ZyTq.jpg",
      "id" : 290859,
      "original_title" : "Terminator: Dark Fate",
      "vote_average" : 6.5,
      "popularity" : 444.66699999999997,
      "poster_path" : "\/vqzNJRH4YyquRiWxCCOH0aXggHI.jpg",
      "overview" : "Decades after Sarah Connor prevented Judgment Day, a lethal new Terminator is sent to eliminate the future leader of the resistance. In a fight to save mankind, battle-hardened Sarah Connor teams up with an unexpected ally and an enhanced super soldier to stop the deadliest Terminator yet.",
      "title" : "Terminator: Dark Fate",
      "original_language" : "en",
      "vote_count" : 3214,
      "release_date" : "2019-10-23",
      "video" : false
    },
    {
      "genre_ids" : [
        878,
        28,
        80,
        53,
        18
      ],
      "adult" : false,
      "backdrop_path" : "\/wlnDNMQlnwl5ETlVY6n9CEtR5s0.jpg",
      "id" : 461130,
      "original_title" : "Code 8",
      "vote_average" : 6.2000000000000002,
      "popularity" : 490.62900000000002,
      "poster_path" : "\/izGX7npHEopDQvngYcxMJEfcFbj.jpg",
      "overview" : "In Lincoln City, some inhabitants have extraordinary abilities. Most live below the poverty line, under the close surveillance of a heavily militarized police force. Connor, a construction worker with powers, involves with a criminal gang to help his ailing mother. (Based on the short film “Code 8,” 2016.)",
      "title" : "Code 8",
      "original_language" : "en",
      "vote_count" : 1050,
      "release_date" : "2019-12-06",
      "video" : false
    },
    {
      "genre_ids" : [
        28,
        12,
        35
      ],
      "adult" : false,
      "backdrop_path" : "\/qAhedRxRYWZAgZ8O8pHIl6QHdD7.jpg",
      "id" : 384018,
      "original_title" : "Fast & Furious Presents: Hobbs & Shaw",
      "vote_average" : 6.9000000000000004,
      "popularity" : 478.92500000000001,
      "poster_path" : "\/qRyy2UmjC5ur9bDi3kpNNRCc5nc.jpg",
      "overview" : "Ever since US Diplomatic Security Service Agent Hobbs and lawless outcast Shaw first faced off, they just have swapped smacks and bad words. But when cyber-genetically enhanced anarchist Brixton's ruthless actions threaten the future of humanity, both join forces to defeat him. (A spin-off of “The Fate of the Furious,” focusing on Johnson's Luke Hobbs and Statham's Deckard Shaw.)",
      "title" : "Fast & Furious Presents: Hobbs & Shaw",
      "original_language" : "en",
      "vote_count" : 4557,
      "release_date" : "2019-08-01",
      "video" : false
    },
    {
      "genre_ids" : [
        16,
        14,
        12,
        35,
        10751
      ],
      "adult" : false,
      "backdrop_path" : "\/wu1uilmhM4TdluKi2ytfz8gidHf.jpg",
      "id" : 400160,
      "original_title" : "The SpongeBob Movie: Sponge on the Run",
      "vote_average" : 7.7999999999999998,
      "popularity" : 436.173,
      "poster_path" : "\/jlJ8nDhMhCYJuzOw3f52CP1W8MW.jpg",
      "overview" : "When his best friend Gary is suddenly snatched away, SpongeBob takes Patrick on a madcap mission far beyond Bikini Bottom to save their pink-shelled pal.",
      "title" : "The SpongeBob Movie: Sponge on the Run",
      "original_language" : "en",
      "vote_count" : 1968,
      "release_date" : "2020-08-14",
      "video" : false
    },
    {
      "genre_ids" : [
        53,
        27,
        18
      ],
      "adult" : false,
      "backdrop_path" : "\/oj9pEWQq5higRzKWiE8f0d5hBSb.jpg",
      "id" : 617708,
      "original_title" : "La llorona",
      "vote_average" : 6.0999999999999996,
      "popularity" : 230.40899999999999,
      "poster_path" : "\/yVsINl4Aa9vvQ9lE2LF77qNj7AP.jpg",
      "overview" : "A tale of horror and fantasy, ripe with suspense, and an urgent metaphor of Guatemalan recent history and its unhealed political wounds.",
      "title" : "La llorona",
      "original_language" : "es",
      "vote_count" : 131,
      "release_date" : "2019-09-06",
      "video" : false
    },
    {
      "genre_ids" : [
        28,
        27,
        878,
        53
      ],
      "adult" : false,
      "backdrop_path" : "\/ww7eC3BqSbFsyE5H5qMde8WkxJ2.jpg",
      "id" : 443791,
      "original_title" : "Underwater",
      "vote_average" : 6.2999999999999998,
      "popularity" : 416.02199999999999,
      "poster_path" : "\/gzlbb3yeVISpQ3REd3Ga1scWGTU.jpg",
      "overview" : "After an earthquake destroys their underwater station, six researchers must navigate two miles along the dangerous, unknown depths of the ocean floor to make it to safety in a race against time.",
      "title" : "Underwater",
      "original_language" : "en",
      "vote_count" : 1873,
      "release_date" : "2020-01-08",
      "video" : false
    },
    {
      "genre_ids" : [
        18,
        28,
        53
      ],
      "adult" : false,
      "backdrop_path" : "\/a8ppJJIQmEJcLSFfhxupc4aT4KW.jpg",
      "id" : 571785,
      "original_title" : "사냥의 시간",
      "vote_average" : 7.2000000000000002,
      "popularity" : 473.21600000000001,
      "poster_path" : "\/bkuuvDoPkOJpg0ZDzHkUWt8ZG5A.jpg",
      "overview" : "Four young men who want to leave their dystopian world behind and go to a distant paradise execute a money robbery, a daring act that will have unexpected consequences.",
      "title" : "Time to Hunt",
      "original_language" : "ko",
      "vote_count" : 157,
      "release_date" : "2020-02-22",
      "video" : false
    },
    {
      "genre_ids" : [
        27
      ],
      "adult" : false,
      "backdrop_path" : "\/3Z8TQeeB4wC5zEXw4XugyO0upLV.jpg",
      "id" : 480157,
      "original_title" : "House of the Witch",
      "vote_average" : 4.5,
      "popularity" : 221.81999999999999,
      "poster_path" : "\/cg6xjZOnGsYYqC7SH3o8oJV9Vr1.jpg",
      "overview" : "A group of high-school kids set out to play a Halloween prank at an abandoned house, but once they enter they become victims of a demonic witch who has set her wrath upon them.",
      "title" : "House of the Witch",
      "original_language" : "en",
      "vote_count" : 86,
      "release_date" : "2017-10-07",
      "video" : false
    }
  ],
  "total_pages" : 500,
  "total_results" : 10000,
  "page" : 2
}
